{"content":[{"id":149581,"parentId":149581,"externalId":"TSK_1800000","header":"Посадка кустарников","text":"DTelekhin test description test description","priority":"Низкий","createDate":1574934889539,"lastEditDate":1574934889545,"state":"Выполняется","stateId":1,"syncMask":"PORTAL_ONLY","files":[{"id":4388,"name":"userData.txt"}],"isSpecialistDate":false,"ticketState":"Выполняется","ticketStateId":1,"applicant":{"fullName":"Алексей Карчевский","userName":"master","email":"a.karchevski@pflb.ru","location":"142784, г.Москва, Киевское шоссе, 22-й км,\nБП ComCity, домовл.6, стр.1","phone":"8 (000) 123-45-67","mobilePhone":"8 (000) 123-45-67","id":106},"contractor":{"id":9,"name":"2-Ремонт","organization":"Холодильное оборудование","company":"YYY","active":true},"categories":["Инженерия","Сантехника","Кран, смеситель, душ"],"category1":"Инженерия","category2":"Сантехника","category3":"Кран, смеситель, душ","location":"default location","address":"default location","hasAttachments":true,"actions":["assignContractor","solveTicket","cancelTicket","cancelTask","inventoryNumberChange","slaDateChange","specialistDateChange","comment"]},{"id":149578,"parentId":149578,"externalId":"TSK_1800000","header":"Не крутится транспортёрная лента","text":"Agalarov.A.1818655577","priority":"Низкий","createDate":1574934229037,"lastEditDate":1574934229042,"state":"Выполняется","stateId":1,"viewed":true,"syncMask":"PORTAL_ONLY","isSpecialistDate":false,"ticketState":"Выполняется","ticketStateId":1,"applicant":{"fullName":"Алексей Карчевский","userName":"master","email":"a.karchevski@pflb.ru","location":"142784, г.Москва, Киевское шоссе, 22-й км,\nБП ComCity, домовл.6, стр.1","phone":"8 (000) 123-45-67","mobilePhone":"8 (000) 123-45-67","id":106},"contractor":{"id":9,"name":"2-Ремонт","organization":"Холодильное оборудование","company":"YYY","active":true},"categories":["Инженерия","Части здания","Кровля и водосток"],"category1":"Инженерия","category2":"Части здания","category3":"Кровля и водосток","location":"256 Бинарная ул. 16","address":"256 Бинарная ул. 16","actions":["assignContractor","solveTicket","cancelTicket","cancelTask","inventoryNumberChange","slaDateChange","specialistDateChange","comment"]},{"id":149577,"parentId":149577,"externalId":"TSK_1800000","header":"Не крутится транспортёрная лента","text":"Agalarov.A.1007169188","priority":"Низкий","createDate":1574934222904,"lastEditDate":1574934222909,"state":"Выполняется","stateId":1,"syncMask":"PORTAL_ONLY","isSpecialistDate":false,"ticketState":"Выполняется","ticketStateId":1,"applicant":{"fullName":"Алексей Карчевский","userName":"master","email":"a.karchevski@pflb.ru","location":"142784, г.Москва, Киевское шоссе, 22-й км,\nБП ComCity, домовл.6, стр.1","phone":"8 (000) 123-45-67","mobilePhone":"8 (000) 123-45-67","id":106},"contractor":{"id":9,"name":"2-Ремонт","organization":"Холодильное оборудование","company":"YYY","active":true},"categories":["Технологическое оборудование","Банковское оборудование","Счётчик монет"],"category1":"Технологическое оборудование","category2":"Банковское оборудование","category3":"Счётчик монет","location":"256 Бинарная ул. 16","address":"256 Бинарная ул. 16","actions":["assignContractor","solveTicket","cancelTicket","cancelTask","inventoryNumberChange","slaDateChange","specialistDateChange","comment"]},{"id":149576,"parentId":149576,"externalId":"TSK_1800000","header":"Не крутится транспортёрная лента","text":"Agalarov.A.1387763439","priority":"Низкий","createDate":1574934217097,"lastEditDate":1574934217104,"state":"Выполняется","stateId":1,"syncMask":"PORTAL_ONLY","isSpecialistDate":false,"ticketState":"Выполняется","ticketStateId":1,"applicant":{"fullName":"Алексей Карчевский","userName":"master","email":"a.karchevski@pflb.ru","location":"142784, г.Москва, Киевское шоссе, 22-й км,\nБП ComCity, домовл.6, стр.1","phone":"8 (000) 123-45-67","mobilePhone":"8 (000) 123-45-67","id":106},"contractor":{"id":9,"name":"2-Ремонт","organization":"Холодильное оборудование","company":"YYY","active":true},"categories":["Технологическое оборудование","Холодильное оборудование","Центральная холодильная машина, конденсатор"],"category1":"Технологическое оборудование","category2":"Холодильное оборудование","category3":"Центральная холодильная машина, конденсатор","location":"default location","address":"default location","actions":["assignContractor","solveTicket","cancelTicket","cancelTask","inventoryNumberChange","slaDateChange","specialistDateChange","comment"]},{"id":149574,"parentId":149574,"externalId":"TSK_1800000","header":"Отсутствие пломб","text":"MX request","priority":"Низкий","createDate":1511190000000,"lastEditDate":1511190000000,"state":"Выполняется","stateId":1,"viewed":true,"syncMask":"PORTAL_ONLY","files":[{"id":4902,"name":"C:\\Users\\student\\Documents\\mx\\LoadRunner\\PL_XDesk\\UC01_task_create\\..\\files\\task_details_1.txt"}],"isSpecialistDate":false,"ticketState":"Новый","ticketStateId":-1,"applicant":{"fullName":"Алексей Карчевский","userName":"master","email":"a.karchevski@pflb.ru","location":"142784, г.Москва, Киевское шоссе, 22-й км,\nБП ComCity, домовл.6, стр.1","phone":"8 (000) 123-45-67","mobilePhone":"8 (000) 123-45-67","id":106},"director":{"fullName":"Васильев Павел1","userName":"director_1","email":"director@mail.com","location":"location","address":"152 Скотопрогонная ул. 13","phone":"+79778334486","mobilePhone":"8 (000) 123-45-67","workPhone":"+79778334486","organization":"organization","id":101122},"categories":["Инженерия","Измерительные приборы","Счетчик воды"],"category1":"Инженерия","category2":"Измерительные приборы","category3":"Счетчик воды","location":"152 Скотопрогонная ул. 13","address":"152 Скотопрогонная ул. 13","hasAttachments":true,"actions":["cancelTask","inventoryNumberChange","slaDateChange","specialistDateChange","comment"]},{"id":149573,"parentId":149573,"externalId":"TSK_1800000","header":"Не работает холодильная камера (указать, какую температуру показывает)","text":"MX request","priority":"Низкий","createDate":1511190000000,"lastEditDate":1511190000000,"state":"Выполняется","stateId":1,"syncMask":"PORTAL_ONLY","files":[{"id":4901,"name":"C:\\Users\\student\\Documents\\mx\\LoadRunner\\PL_XDesk\\UC01_task_create\\..\\files\\task_details_3.txt"}],"isSpecialistDate":false,"ticketState":"Новый","ticketStateId":-1,"applicant":{"fullName":"Алексей Карчевский","userName":"master","email":"a.karchevski@pflb.ru","location":"142784, г.Москва, Киевское шоссе, 22-й км,\nБП ComCity, домовл.6, стр.1","phone":"8 (000) 123-45-67","mobilePhone":"8 (000) 123-45-67","id":106},"director":{"fullName":"Васильев Павел1","userName":"director_1","email":"director@mail.com","location":"location","address":"152 Скотопрогонная ул. 13","phone":"+79778334486","mobilePhone":"8 (000) 123-45-67","workPhone":"+79778334486","organization":"organization","id":101122},"categories":["Технологическое оборудование","Холодильное оборудование","Холодильная камера"],"category1":"Технологическое оборудование","category2":"Холодильное оборудование","category3":"Холодильная камера","location":"152 Скотопрогонная ул. 13","address":"152 Скотопрогонная ул. 13","hasAttachments":true,"actions":["cancelTask","inventoryNumberChange","slaDateChange","specialistDateChange","comment"]},{"id":149571,"parentId":149571,"externalId":"TSK_1800000","header":"Не крутится транспортёрная лента","text":"Agalarov.A.1165410914","priority":"Низкий","createDate":1574933536050,"lastEditDate":1574933536056,"state":"Выполняется","stateId":1,"syncMask":"PORTAL_ONLY","isSpecialistDate":false,"ticketState":"Выполняется","ticketStateId":1,"applicant":{"fullName":"Алексей Карчевский","userName":"master","email":"a.karchevski@pflb.ru","location":"142784, г.Москва, Киевское шоссе, 22-й км,\nБП ComCity, домовл.6, стр.1","phone":"8 (000) 123-45-67","mobilePhone":"8 (000) 123-45-67","id":106},"contractor":{"id":9,"name":"2-Ремонт","organization":"Холодильное оборудование","company":"YYY","active":true},"categories":["Экология","Дератизация, Дезинсекция, Дезинфекция","Уничтожение грызунов и насекомых, Дезинфекция"],"category1":"Экология","category2":"Дератизация, Дезинсекция, Дезинфекция","category3":"Уничтожение грызунов и насекомых, Дезинфекция","location":"default location","address":"default location","actions":["assignContractor","solveTicket","cancelTicket","cancelTask","inventoryNumberChange","slaDateChange","specialistDateChange","comment"]},{"id":149570,"parentId":149570,"externalId":"TSK_1800000","header":"Не крутится транспортёрная лента","text":"Agalarov.A.1004877279","priority":"Низкий","createDate":1574933529771,"lastEditDate":1574933529776,"state":"Выполняется","stateId":1,"syncMask":"PORTAL_ONLY","isSpecialistDate":false,"ticketState":"Выполняется","ticketStateId":1,"inventoryNumber":"000008","applicant":{"fullName":"Алексей Карчевский","userName":"master","email":"a.karchevski@pflb.ru","location":"142784, г.Москва, Киевское шоссе, 22-й км,\nБП ComCity, домовл.6, стр.1","phone":"8 (000) 123-45-67","mobilePhone":"8 (000) 123-45-67","id":106},"contractor":{"id":9,"name":"2-Ремонт","organization":"Холодильное оборудование","company":"YYY","active":true},"categories":["Технологическое оборудование","Холодильное оборудование","Икорный/Бытовой холодильник"],"category1":"Технологическое оборудование","category2":"Холодильное оборудование","category3":"Икорный/Бытовой холодильник","location":"Барклая 24","address":"Барклая 24","actions":["assignContractor","solveTicket","cancelTicket","cancelTask","inventoryNumberChange","slaDateChange","specialistDateChange","comment"]},{"id":149569,"parentId":149569,"externalId":"TSK_1800000","header":"Не крутится транспортёрная лента","text":"Agalarov.A.1582715804","priority":"Низкий","createDate":1574933523378,"lastEditDate":1574933523383,"state":"Выполняется","stateId":1,"syncMask":"PORTAL_ONLY","isSpecialistDate":false,"ticketState":"Выполняется","ticketStateId":1,"inventoryNumber":"000007","applicant":{"fullName":"Алексей Карчевский","userName":"master","email":"a.karchevski@pflb.ru","location":"142784, г.Москва, Киевское шоссе, 22-й км,\nБП ComCity, домовл.6, стр.1","phone":"8 (000) 123-45-67","mobilePhone":"8 (000) 123-45-67","id":106},"contractor":{"id":9,"name":"2-Ремонт","organization":"Холодильное оборудование","company":"YYY","active":true},"categories":["Инженерия","Работы на прилегающей территории","Ремонт ограждений газонов и тротуаров"],"category1":"Инженерия","category2":"Работы на прилегающей территории","category3":"Ремонт ограждений газонов и тротуаров","location":"Барклая 24","address":"Барклая 24","actions":["assignContractor","solveTicket","cancelTicket","cancelTask","inventoryNumberChange","slaDateChange","specialistDateChange","comment"]},{"id":149568,"parentId":149568,"externalId":"TSK_1800000","header":"Не крутится транспортёрная лента","text":"Agalarov.A.2001942440","priority":"Низкий","createDate":1574933517721,"lastEditDate":1574933517726,"state":"Выполняется","stateId":1,"viewed":true,"syncMask":"PORTAL_ONLY","isSpecialistDate":false,"ticketState":"Выполняется","ticketStateId":1,"inventoryNumber":"000006","applicant":{"fullName":"Алексей Карчевский","userName":"master","email":"a.karchevski@pflb.ru","location":"142784, г.Москва, Киевское шоссе, 22-й км,\nБП ComCity, домовл.6, стр.1","phone":"8 (000) 123-45-67","mobilePhone":"8 (000) 123-45-67","id":106},"contractor":{"id":9,"name":"2-Ремонт","organization":"Холодильное оборудование","company":"YYY","active":true},"categories":["Инженерия","Измерительные приборы","Электросчетчик"],"category1":"Инженерия","category2":"Измерительные приборы","category3":"Электросчетчик","location":"Барклая 24","address":"Барклая 24","hasAttachments":true,"actions":["assignContractor","solveTicket","cancelTicket","cancelTask","inventoryNumberChange","slaDateChange","specialistDateChange","comment"]}],"last":false,"totalElements":320,"totalPages":32,"size":10,"number":0,"sort":[{"direction":"DESC","property":"id","ignoreCase":false,"nullHandling":"NATIVE","ascending":false,"descending":true}],"numberOfElements":10,"first":true}